X,Y,NOM
0.616959,44.204854,n°003 - Place des Laitiers (angle rue des Cornières)
0.611094,44.2026,n°012 - Péristyle du Gravier
0.622887,44.2056,n°006 - Place Castex
0.629072103271477,44.2175079788421,n°081 - Allée des ormes angle allée des pins cimetière de Gaillard
0.628600034484856,44.2134709419939,n°078 - Rond-point allée principale cimetière de Gaillard
0.626492,44.205789,n°060 - Rue de la Prune 2
0.64528,44.2126,n°041 - Tour 6 Montanou 2 (rue Blaise de Monluc)
0.634207,44.1898,n°026 - Tapie (angle rues A. Malraux et M. Pagnol)
0.617281,44.1995,n°022 - Palais de Justice
0.622005,44.2054,n°043 - Rue des Autas
0.621133,44.1999,n°016 - Jardin Jayan
0.629064056644433,44.212513546943,n°082 - Place du repos bis (entrée cimetière 1)
0.643987,44.212595,n°067 - Rue Tchékhov 1 (angle rue Touapse)
0.6117,44.20334,n°097 - Avenue du Général de Gaulle
0.628259,44.2088,n°033 - Rond-point des Anciens Combattants
0.626755,44.206,n°015 - Rue de la Prune 1
0.621956,44.2061,n°046 - Rue Jules Cels
0.626948,44.2068,n°028 - Rue Fumadelles
0.622335,44.2054,n°044 - Rue Lassaigne
0.619358,44.2051,n°024 - Rue Roussanes
0.618382,44.2048,n°014 - Place Wilson
0.611664,44.2043,n°001 - Place Jasmin
0.627494964370721,44.2155202533814,n°075 - Avenue de Gaillard 2 (entrée cimetière 2)
0.628946039447778,44.2124654845322,n°074 - Place du repos (entrée cimetière 1)
0.627527150878899,44.2100863461716,n°090 - Quai Georges Leygues bis
0.611380252609246,44.2091548512763,n°086 - Pont Saint Georges VPI
0.6335184,44.1891572,n°055 - École La Goulfie (stade)
0.633921,44.2009,n°047 - Parc Labesque
0.62062,44.2032,n°029 - Boulevard Carnot (angle rue de l’Ecole Vieille)
0.621013,44.2061,n°013 - Place du Poids de la Ville
0.61341,44.2044,n°002 - Boulevard de la République
0.620955,44.2081,n°009 - Place de la Gare
0.615256,44.2036,n°018 - Rue Garonne
0.628492746124261,44.2154587366294,n°080 - Angle carrés militaires cimetière de Gaillard
0.616900,44.204752,n°049 - Place des Laitiers (angle bd de la République)
0.6487448,44.2143022,n°053 - Place de Montanou
0.616728,44.201330,n°050 - Place Lapeyrusse
0.648114,44.2137,n°042 - Rue Blaise Monluc 2 (sous caméra n°39 - panoramique)
0.6271,44.2043,n°035 - Halle Pin
0.614695462951653,44.2044274558291,n°088 - Boulevard de la République angle rue Noubel
0.636448,44.202947,n°070 - Rue du Jourdain 2 (angle Abbé Pierre - Emmaüs)
0.619425538549416,44.1980488362786,n°091 - Rue Marceau (angle Barsalou Froumenty)
0.611855,44.200201,n°064 - Cours Gambetta 1 (face au commissariat)
0.612551,44.204316,n°095 - Place Jasmin (angle rue des Charretiers)
0.609774,44.202076,n°096 - Péristyle du gravier (parvis passerelle)
0.642542,44.204993,n°071 - Rue du Jourdain 3 (proche du canal)
0.611380252609246,44.2091548512763,n°087 - Pont Saint Georges PTZ
0.612443,44.20412,n°094 - Place Jasmin
0.608364,44.207564,n°100 - Skatepark bis
0.619844,44.2067,n°011 - Place Foch bis (angle place Pouzet)
0.618608,44.2081,n°034 - Rond-point de Piketty
0.624583,44.2034,n°032 - Place Pelletan
0.620758,44.204833,n°066 - Boulevard Carnot (angle rue du Centre)
0.6333245,44.1893339,n°054 - École La Goulfie 1 (entrée)
0.616604,44.200575,n°051 - Place Armand Fallières
0.627508,44.206010,n°059 - Multiplexe 2 (entrée)
0.637447,44.192635,n°048 - Place des Vignes
0.621689,44.2041,n°038 - Rue Lafayette
0.644947,44.2125,n°040 - Tour 6 Montanou 1 (place Rousseau)
0.62258,44.2058,n°045 - Rue Emile Sentini
0.626317,44.204773,n°036 - Square du Pin
0.617847,44.204649,n°072 - Place Jean-Baptiste Durand 2 (angle rue Parmentier)
0.628677818546288,44.217525279833,n°077 - Avenue de Gaillard 4 (entrée cimetière 4)
0.612004,44.204661,n°093 - Avenue du Général de Gaulle (côté place Jasmin)
0.636260,44.203032,n°069 - Rue du Jourdain 1 (angle Abbé Pierre - Emmaüs)
0.612260,44.200053,n°073 - Cours Gambetta 2 (face au commissariat)
0.645414,44.214871,n°068 - Rue Tchékhov (angle rue Tolstoï)
0.612501415977471,44.1950527763211,n°083 - Pont de Pierre VPI 1
0.612501415977471,44.1950527763211,n°084 - Pont de Pierre VPI 2
0.620693,44.2053,n°005 - Quatre Feux (angle bd de la République et bd Carnot)
0.61897,44.2059,n°010 - Place Foch (angle rue des Héros de la Résistance)
0.617380,44.199354,n°023 - Palais de Justice (fixe sur rue de Strasbourg)
0.620333,44.1994,n°017 - Rue de Strasbourg (angle bd Carnot)
0.630123,44.1897,n°019 - Boulevard Edouard Lacour
0.615167,44.203,n°008 - Place Esquirol (Mairie)
0.630499,44.2058,n°021 - Avenue Henri Barbusse
0.625901,44.2052,n°007 - Place du 14 Juillet
0.609401,44.203,n°020 - Rue Cale Abadie
0.633124,44.189216,n°056 - École La Goulfie (place des Capiscols)
0.6436306,44.208646,n°052 - Boulevard du docteur Messines
0.620274,44.197554,n°065 - Boulevard de la Liberté
0.614334,44.206878,n°063 - Boulevard Scaliger
0.627024,44.205621,n°027 - Multiplex 1 (angle bâtiment multiplexe côté McDonald's)
0.640113,44.1952,n°025 - École La Goulfie (centre social Tapie)
0.648359,44.2137,n°039 - Rue Blaise de Monluc 1
0.619917,44.2083,n°037 - Gare routière
0.614631,44.2038,n°030 - Rue Voltaire
0.629179391632073,44.2149819796226,n°079 - Allée principale intersection allée des cyprès cimetière de Gaillard
0.628042135009759,44.2166236992049,n°076 - Avenue de Gaillard 3 (entrée cimetière 3)
0.6117,44.20334,n°098 - Avenue du Général de Gaulle bis
0.621599468955987,44.2093605696826,n°089 - Quai Georges Leygues
0.612501415977471,44.1950527763211,n°085 - Pont de Pierre PTZ
0.616529,44.203049,n°101 - Cour arrière Hôtel de Ville
0.608364,44.207564,n°099 - Skatepark
0.617326,44.204408,n°004 - Place Jean-Baptiste Durand
